test_counter.vcd
$date
   Generated by SKALP Simulator
$end
$version
   SKALP 0.1.0
$end
$timescale
   1ps
$end
$scope module top $end
$var wire 8 ! count $end
$var wire 8 " node_0_out $end
$var wire 32 # node_4_out $end
$var wire 32 $ node_6_out $end
$var wire 32 % node_3_out $end
$var wire 8 & node_5_out $end
$var wire 32 ' node_1_out $end
$var wire 32 ( node_7_out $end
$var wire 8 ) node_2_out $end
$var wire 8 * reg_counter $end
$upscope $end
$enddefinitions $end
$dumpvars
b00000000 !
b00000000 "
b00000000000000000000000000000001 #
b00000000000000000000000000000000 $
b00000000000000000000000000000001 %
b00000001 &
b00000000000000000000000000000000 '
b00000000000000000000000000000000 (
b00000000 )
b00000000 *
$end
#1
b00000000 !
b00000000 "
b00000000000000000000000000000001 #
b00000000000000000000000000000000 $
b00000000000000000000000000000001 %
b00000001 &
b00000000000000000000000000000000 '
b00000000000000000000000000000000 (
b00000000 )
b00000000 *
#2
b00000000 !
b00000000 "
b00000000000000000000000000000001 #
b00000000000000000000000000000000 $
b00000000000000000000000000000001 %
b00000001 &
b00000000000000000000000000000000 '
b00000000000000000000000000000000 (
b00000000 )
b00000000 *
#3
b00000000 !
b00000000 "
b00000000000000000000000000000001 #
b00000000000000000000000000000000 $
b00000000000000000000000000000001 %
b00000001 &
b00000000000000000000000000000000 '
b00000000000000000000000000000000 (
b00000000 )
b00000000 *
#4
b00000000 !
b00000000 "
b00000000000000000000000000000001 #
b00000000000000000000000000000000 $
b00000000000000000000000000000001 %
b00000001 &
b00000000000000000000000000000000 '
b00000000000000000000000000000000 (
b00000000 )
b00000000 *
#5
b00000000 !
b00000000 "
b00000000000000000000000000000001 #
b00000000000000000000000000000000 $
b00000000000000000000000000000001 %
b00000001 &
b00000000000000000000000000000000 '
b00000000000000000000000000000000 (
b00000000 )
b00000000 *
#6
b00000001 !
b00000001 "
b00000000000000000000000000000010 #
b00000000000000000000000000000010 $
b00000000000000000000000000000001 %
b00000000 &
b00000000000000000000000000000000 '
b00000000000000000000000000000000 (
b00000001 )
b00000001 *
#7
b00000001 !
b00000001 "
b00000000000000000000000000000010 #
b00000000000000000000000000000010 $
b00000000000000000000000000000001 %
b00000000 &
b00000000000000000000000000000000 '
b00000000000000000000000000000000 (
b00000001 )
b00000001 *
#8
b00000010 !
b00000010 "
b00000000000000000000000000000011 #
b00000000000000000000000000000011 $
b00000000000000000000000000000001 %
b00000000 &
b00000000000000000000000000000000 '
b00000000000000000000000000000000 (
b00000010 )
b00000010 *
#9
b00000010 !
b00000010 "
b00000000000000000000000000000011 #
b00000000000000000000000000000011 $
b00000000000000000000000000000001 %
b00000000 &
b00000000000000000000000000000000 '
b00000000000000000000000000000000 (
b00000010 )
b00000010 *
#10
b00000011 !
b00000011 "
b00000000000000000000000000000100 #
b00000000000000000000000000000100 $
b00000000000000000000000000000001 %
b00000000 &
b00000000000000000000000000000000 '
b00000000000000000000000000000000 (
b00000011 )
b00000011 *
#11
b00000011 !
b00000011 "
b00000000000000000000000000000100 #
b00000000000000000000000000000100 $
b00000000000000000000000000000001 %
b00000000 &
b00000000000000000000000000000000 '
b00000000000000000000000000000000 (
b00000011 )
b00000011 *
#12
b00000100 !
b00000100 "
b00000000000000000000000000000101 #
b00000000000000000000000000000101 $
b00000000000000000000000000000001 %
b00000000 &
b00000000000000000000000000000000 '
b00000000000000000000000000000000 (
b00000100 )
b00000100 *
#13
b00000100 !
b00000100 "
b00000000000000000000000000000101 #
b00000000000000000000000000000101 $
b00000000000000000000000000000001 %
b00000000 &
b00000000000000000000000000000000 '
b00000000000000000000000000000000 (
b00000100 )
b00000100 *
#14
b00000101 !
b00000101 "
b00000000000000000000000000000110 #
b00000000000000000000000000000110 $
b00000000000000000000000000000001 %
b00000000 &
b00000000000000000000000000000000 '
b00000000000000000000000000000000 (
b00000101 )
b00000101 *
#15
b00000101 !
b00000101 "
b00000000000000000000000000000110 #
b00000000000000000000000000000110 $
b00000000000000000000000000000001 %
b00000000 &
b00000000000000000000000000000000 '
b00000000000000000000000000000000 (
b00000101 )
b00000101 *
#16
b00000110 !
b00000110 "
b00000000000000000000000000000111 #
b00000000000000000000000000000111 $
b00000000000000000000000000000001 %
b00000000 &
b00000000000000000000000000000000 '
b00000000000000000000000000000000 (
b00000110 )
b00000110 *
#17
b00000110 !
b00000110 "
b00000000000000000000000000000111 #
b00000000000000000000000000000111 $
b00000000000000000000000000000001 %
b00000000 &
b00000000000000000000000000000000 '
b00000000000000000000000000000000 (
b00000110 )
b00000110 *
#18
b00000111 !
b00000111 "
b00000000000000000000000000001000 #
b00000000000000000000000000001000 $
b00000000000000000000000000000001 %
b00000000 &
b00000000000000000000000000000000 '
b00000000000000000000000000000000 (
b00000111 )
b00000111 *
#19
b00000111 !
b00000111 "
b00000000000000000000000000001000 #
b00000000000000000000000000001000 $
b00000000000000000000000000000001 %
b00000000 &
b00000000000000000000000000000000 '
b00000000000000000000000000000000 (
b00000111 )
b00000111 *
#20
b00001000 !
b00001000 "
b00000000000000000000000000001001 #
b00000000000000000000000000001001 $
b00000000000000000000000000000001 %
b00000000 &
b00000000000000000000000000000000 '
b00000000000000000000000000000000 (
b00001000 )
b00001000 *
#21
b00001000 !
b00001000 "
b00000000000000000000000000001001 #
b00000000000000000000000000001001 $
b00000000000000000000000000000001 %
b00000000 &
b00000000000000000000000000000000 '
b00000000000000000000000000000000 (
b00001000 )
b00001000 *
#22
b00001001 !
b00001001 "
b00000000000000000000000000001010 #
b00000000000000000000000000001010 $
b00000000000000000000000000000001 %
b00000000 &
b00000000000000000000000000000000 '
b00000000000000000000000000000000 (
b00001001 )
b00001001 *
#23
b00001001 !
b00001001 "
b00000000000000000000000000001010 #
b00000000000000000000000000001010 $
b00000000000000000000000000000001 %
b00000000 &
b00000000000000000000000000000000 '
b00000000000000000000000000000000 (
b00001001 )
b00001001 *
#24
b00001010 !
b00001010 "
b00000000000000000000000000001011 #
b00000000000000000000000000001011 $
b00000000000000000000000000000001 %
b00000000 &
b00000000000000000000000000000000 '
b00000000000000000000000000000000 (
b00001010 )
b00001010 *
#25
b00001010 !
b00001010 "
b00000000000000000000000000001011 #
b00000000000000000000000000001011 $
b00000000000000000000000000000001 %
b00000000 &
b00000000000000000000000000000000 '
b00000000000000000000000000000000 (
b00001010 )
b00001010 *
