test_counter.vcd
$date
   Generated by SKALP Simulator
$end
$version
   SKALP 0.1.0
$end
$timescale
   1ps
$end
$scope module top $end
$var wire 32 ! node_7_out $end
$var wire 8 " rst $end
$var wire 8 # node_2_out $end
$var wire 8 $ clk $end
$var wire 32 % node_6_out $end
$var wire 8 & count $end
$var wire 8 ' node_0_out $end
$var wire 32 ( node_3_out $end
$var wire 32 ) node_4_out $end
$var wire 32 * node_1_out $end
$var wire 8 + reg_counter $end
$var wire 8 , node_5_out $end
$upscope $end
$enddefinitions $end
$dumpvars
b00000000000000000000000000000000 !
b00000000 "
b00000000 #
b00000000 $
b00000000000000000000000000000000 %
b00000000 &
b00000000 '
b00000000000000000000000000000001 (
b00000000000000000000000000000001 )
b00000000000000000000000000000000 *
b00000000 +
b00000001 ,
$end
#1
b00000000000000000000000000000000 !
b00000000 "
b00000000 #
b00000000 $
b00000000000000000000000000000000 %
b00000000 &
b00000000 '
b00000000000000000000000000000001 (
b00000000000000000000000000000001 )
b00000000000000000000000000000000 *
b00000000 +
b00000001 ,
#2
b00000000000000000000000000000000 !
b00000000 "
b00000000 #
b00000000 $
b00000000000000000000000000000000 %
b00000000 &
b00000000 '
b00000000000000000000000000000001 (
b00000000000000000000000000000001 )
b00000000000000000000000000000000 *
b00000000 +
b00000001 ,
#3
b00000000000000000000000000000000 !
b00000000 "
b00000000 #
b00000000 $
b00000000000000000000000000000000 %
b00000000 &
b00000000 '
b00000000000000000000000000000001 (
b00000000000000000000000000000001 )
b00000000000000000000000000000000 *
b00000000 +
b00000001 ,
#4
b00000000000000000000000000000000 !
b00000000 "
b00000000 #
b00000000 $
b00000000000000000000000000000000 %
b00000000 &
b00000000 '
b00000000000000000000000000000001 (
b00000000000000000000000000000001 )
b00000000000000000000000000000000 *
b00000000 +
b00000001 ,
#5
b00000000000000000000000000000000 !
b00000000 "
b00000000 #
b00000000 $
b00000000000000000000000000000000 %
b00000000 &
b00000000 '
b00000000000000000000000000000001 (
b00000000000000000000000000000001 )
b00000000000000000000000000000000 *
b00000000 +
b00000001 ,
#6
b00000000000000000000000000000000 !
b00000000 "
b00000001 #
b00000000 $
b00000000000000000000000000000010 %
b00000000 &
b00000001 '
b00000000000000000000000000000001 (
b00000000000000000000000000000010 )
b00000000000000000000000000000000 *
b00000001 +
b00000000 ,
#7
b00000000000000000000000000000000 !
b00000000 "
b00000001 #
b00000000 $
b00000000000000000000000000000010 %
b00000001 &
b00000001 '
b00000000000000000000000000000001 (
b00000000000000000000000000000010 )
b00000000000000000000000000000000 *
b00000001 +
b00000000 ,
#8
b00000000000000000000000000000000 !
b00000000 "
b00000010 #
b00000000 $
b00000000000000000000000000000011 %
b00000001 &
b00000010 '
b00000000000000000000000000000001 (
b00000000000000000000000000000011 )
b00000000000000000000000000000000 *
b00000010 +
b00000000 ,
#9
b00000000000000000000000000000000 !
b00000000 "
b00000010 #
b00000000 $
b00000000000000000000000000000011 %
b00000010 &
b00000010 '
b00000000000000000000000000000001 (
b00000000000000000000000000000011 )
b00000000000000000000000000000000 *
b00000010 +
b00000000 ,
#10
b00000000000000000000000000000000 !
b00000000 "
b00000011 #
b00000000 $
b00000000000000000000000000000100 %
b00000010 &
b00000011 '
b00000000000000000000000000000001 (
b00000000000000000000000000000100 )
b00000000000000000000000000000000 *
b00000011 +
b00000000 ,
#11
b00000000000000000000000000000000 !
b00000000 "
b00000011 #
b00000000 $
b00000000000000000000000000000100 %
b00000011 &
b00000011 '
b00000000000000000000000000000001 (
b00000000000000000000000000000100 )
b00000000000000000000000000000000 *
b00000011 +
b00000000 ,
#12
b00000000000000000000000000000000 !
b00000000 "
b00000100 #
b00000000 $
b00000000000000000000000000000101 %
b00000011 &
b00000100 '
b00000000000000000000000000000001 (
b00000000000000000000000000000101 )
b00000000000000000000000000000000 *
b00000100 +
b00000000 ,
#13
b00000000000000000000000000000000 !
b00000000 "
b00000100 #
b00000000 $
b00000000000000000000000000000101 %
b00000100 &
b00000100 '
b00000000000000000000000000000001 (
b00000000000000000000000000000101 )
b00000000000000000000000000000000 *
b00000100 +
b00000000 ,
#14
b00000000000000000000000000000000 !
b00000000 "
b00000101 #
b00000000 $
b00000000000000000000000000000110 %
b00000100 &
b00000101 '
b00000000000000000000000000000001 (
b00000000000000000000000000000110 )
b00000000000000000000000000000000 *
b00000101 +
b00000000 ,
#15
b00000000000000000000000000000000 !
b00000000 "
b00000101 #
b00000000 $
b00000000000000000000000000000110 %
b00000101 &
b00000101 '
b00000000000000000000000000000001 (
b00000000000000000000000000000110 )
b00000000000000000000000000000000 *
b00000101 +
b00000000 ,
#16
b00000000000000000000000000000000 !
b00000000 "
b00000110 #
b00000000 $
b00000000000000000000000000000111 %
b00000101 &
b00000110 '
b00000000000000000000000000000001 (
b00000000000000000000000000000111 )
b00000000000000000000000000000000 *
b00000110 +
b00000000 ,
#17
b00000000000000000000000000000000 !
b00000000 "
b00000110 #
b00000000 $
b00000000000000000000000000000111 %
b00000110 &
b00000110 '
b00000000000000000000000000000001 (
b00000000000000000000000000000111 )
b00000000000000000000000000000000 *
b00000110 +
b00000000 ,
#18
b00000000000000000000000000000000 !
b00000000 "
b00000111 #
b00000000 $
b00000000000000000000000000001000 %
b00000110 &
b00000111 '
b00000000000000000000000000000001 (
b00000000000000000000000000001000 )
b00000000000000000000000000000000 *
b00000111 +
b00000000 ,
#19
b00000000000000000000000000000000 !
b00000000 "
b00000111 #
b00000000 $
b00000000000000000000000000001000 %
b00000111 &
b00000111 '
b00000000000000000000000000000001 (
b00000000000000000000000000001000 )
b00000000000000000000000000000000 *
b00000111 +
b00000000 ,
#20
b00000000000000000000000000000000 !
b00000000 "
b00001000 #
b00000000 $
b00000000000000000000000000001001 %
b00000111 &
b00001000 '
b00000000000000000000000000000001 (
b00000000000000000000000000001001 )
b00000000000000000000000000000000 *
b00001000 +
b00000000 ,
#21
b00000000000000000000000000000000 !
b00000000 "
b00001000 #
b00000000 $
b00000000000000000000000000001001 %
b00001000 &
b00001000 '
b00000000000000000000000000000001 (
b00000000000000000000000000001001 )
b00000000000000000000000000000000 *
b00001000 +
b00000000 ,
#22
b00000000000000000000000000000000 !
b00000000 "
b00001001 #
b00000000 $
b00000000000000000000000000001010 %
b00001000 &
b00001001 '
b00000000000000000000000000000001 (
b00000000000000000000000000001010 )
b00000000000000000000000000000000 *
b00001001 +
b00000000 ,
#23
b00000000000000000000000000000000 !
b00000000 "
b00001001 #
b00000000 $
b00000000000000000000000000001010 %
b00001001 &
b00001001 '
b00000000000000000000000000000001 (
b00000000000000000000000000001010 )
b00000000000000000000000000000000 *
b00001001 +
b00000000 ,
#24
b00000000000000000000000000000000 !
b00000000 "
b00001010 #
b00000000 $
b00000000000000000000000000001011 %
b00001001 &
b00001010 '
b00000000000000000000000000000001 (
b00000000000000000000000000001011 )
b00000000000000000000000000000000 *
b00001010 +
b00000000 ,
#25
b00000000000000000000000000000000 !
b00000000 "
b00001010 #
b00000000 $
b00000000000000000000000000001011 %
b00001010 &
b00001010 '
b00000000000000000000000000000001 (
b00000000000000000000000000001011 )
b00000000000000000000000000000000 *
b00001010 +
b00000000 ,
